%YAML 1.1
%TAG !u! tag:unity3d.com,2011:
--- !u!82 &6947690103680415312
AudioSource:
  m_ObjectHideFlags: 0
  m_CorrespondingSourceObject: {fileID: 0}
  m_PrefabInstance: {fileID: 0}
  m_PrefabAsset: {fileID: 0}
  m_GameObject: {fileID: 2592465559486979191}
  m_Enabled: 1
  serializedVersion: 4
  OutputAudioMixerGroup: {fileID: 24300002, guid: 2bb798e1375bb0346819c6d6abd32b59,
    type: 2}
  m_audioClip: {fileID: 8300000, guid: 4104495a448805b4e94dc83af000e0f6, type: 3}
  m_PlayOnAwake: 1
  m_Volume: 1
  m_Pitch: 1
  Loop: 0
  Mute: 0
  Spatialize: 0
  SpatializePostEffects: 0
  Priority: 128
  DopplerLevel: 1
  MinDistance: 1
  MaxDistance: 500
  Pan2D: 0
  rolloffMode: 0
  BypassEffects: 0
  BypassListenerEffects: 0
  BypassReverbZones: 0
  rolloffCustomCurve:
    serializedVersion: 2
    m_Curve:
    - serializedVersion: 3
      time: 0
      value: 1
      inSlope: 0
      outSlope: 0
      tangentMode: 0
      weightedMode: 0
      inWeight: 0.33333334
      outWeight: 0.33333334
    - serializedVersion: 3
      time: 1
      value: 0
      inSlope: 0
      outSlope: 0
      tangentMode: 0
      weightedMode: 0
      inWeight: 0.33333334
      outWeight: 0.33333334
    m_PreInfinity: 2
    m_PostInfinity: 2
    m_RotationOrder: 4
  panLevelCustomCurve:
    serializedVersion: 2
    m_Curve:
    - serializedVersion: 3
      time: 0
      value: 0
      inSlope: 0
      outSlope: 0
      tangentMode: 0
      weightedMode: 0
      inWeight: 0.33333334
      outWeight: 0.33333334
    m_PreInfinity: 2
    m_PostInfinity: 2
    m_RotationOrder: 4
  spreadCustomCurve:
    serializedVersion: 2
    m_Curve:
    - serializedVersion: 3
      time: 0
      value: 0
      inSlope: 0
      outSlope: 0
      tangentMode: 0
      weightedMode: 0
      inWeight: 0.33333334
      outWeight: 0.33333334
    m_PreInfinity: 2
    m_PostInfinity: 2
    m_RotationOrder: 4
  reverbZoneMixCustomCurve:
    serializedVersion: 2
    m_Curve:
    - serializedVersion: 3
      time: 0
      value: 1
      inSlope: 0
      outSlope: 0
      tangentMode: 0
      weightedMode: 0
      inWeight: 0.33333334
      outWeight: 0.33333334
    m_PreInfinity: 2
    m_PostInfinity: 2
    m_RotationOrder: 4
--- !u!114 &8388878150230445075
MonoBehaviour:
  m_ObjectHideFlags: 0
  m_CorrespondingSourceObject: {fileID: 0}
  m_PrefabInstance: {fileID: 0}
  m_PrefabAsset: {fileID: 0}
  m_GameObject: {fileID: 2592465559486979191}
  m_Enabled: 1
  m_EditorHideFlags: 0
  m_Script: {fileID: 11500000, guid: fbc6a603b52f1324da9a943568fc586f, type: 3}
  m_Name: 
  m_EditorClassIdentifier: 
--- !u!1001 &2592465559486880425
PrefabInstance:
  m_ObjectHideFlags: 0
  serializedVersion: 2
  m_Modification:
    m_TransformParent: {fileID: 0}
    m_Modifications:
    - target: {fileID: 100062, guid: fd0c0c32f05f1c94db17f0dc2e06e9fe, type: 3}
      propertyPath: m_Name
      value: true_scarecrow@Crouch Walk Variant
      objectReference: {fileID: 0}
    - target: {fileID: 400062, guid: fd0c0c32f05f1c94db17f0dc2e06e9fe, type: 3}
      propertyPath: m_LocalPosition.x
      value: -12.38
      objectReference: {fileID: 0}
    - target: {fileID: 400062, guid: fd0c0c32f05f1c94db17f0dc2e06e9fe, type: 3}
      propertyPath: m_LocalPosition.y
      value: 6.25
      objectReference: {fileID: 0}
    - target: {fileID: 400062, guid: fd0c0c32f05f1c94db17f0dc2e06e9fe, type: 3}
      propertyPath: m_LocalPosition.z
      value: 8.74
      objectReference: {fileID: 0}
    - target: {fileID: 400062, guid: fd0c0c32f05f1c94db17f0dc2e06e9fe, type: 3}
      propertyPath: m_LocalRotation.x
      value: -0
      objectReference: {fileID: 0}
    - target: {fileID: 400062, guid: fd0c0c32f05f1c94db17f0dc2e06e9fe, type: 3}
      propertyPath: m_LocalRotation.y
      value: -0.6892727
      objectReference: {fileID: 0}
    - target: {fileID: 400062, guid: fd0c0c32f05f1c94db17f0dc2e06e9fe, type: 3}
      propertyPath: m_LocalRotation.z
      value: -0
      objectReference: {fileID: 0}
    - target: {fileID: 400062, guid: fd0c0c32f05f1c94db17f0dc2e06e9fe, type: 3}
      propertyPath: m_LocalRotation.w
      value: 0.7245021
      objectReference: {fileID: 0}
    - target: {fileID: 400062, guid: fd0c0c32f05f1c94db17f0dc2e06e9fe, type: 3}
      propertyPath: m_RootOrder
      value: 0
      objectReference: {fileID: 0}
    - target: {fileID: 400062, guid: fd0c0c32f05f1c94db17f0dc2e06e9fe, type: 3}
      propertyPath: m_LocalEulerAnglesHint.x
      value: 0
      objectReference: {fileID: 0}
    - target: {fileID: 400062, guid: fd0c0c32f05f1c94db17f0dc2e06e9fe, type: 3}
      propertyPath: m_LocalEulerAnglesHint.y
      value: -87.145004
      objectReference: {fileID: 0}
    - target: {fileID: 400062, guid: fd0c0c32f05f1c94db17f0dc2e06e9fe, type: 3}
      propertyPath: m_LocalEulerAnglesHint.z
      value: 0
      objectReference: {fileID: 0}
    - target: {fileID: 400062, guid: fd0c0c32f05f1c94db17f0dc2e06e9fe, type: 3}
      propertyPath: m_LocalScale.x
      value: 0.4514707
      objectReference: {fileID: 0}
    - target: {fileID: 400062, guid: fd0c0c32f05f1c94db17f0dc2e06e9fe, type: 3}
      propertyPath: m_LocalScale.y
      value: 0.45147
      objectReference: {fileID: 0}
    - target: {fileID: 400062, guid: fd0c0c32f05f1c94db17f0dc2e06e9fe, type: 3}
      propertyPath: m_LocalScale.z
      value: 0.4514707
      objectReference: {fileID: 0}
    - target: {fileID: 13700000, guid: fd0c0c32f05f1c94db17f0dc2e06e9fe, type: 3}
      propertyPath: m_Materials.Array.data[0]
      value: 
      objectReference: {fileID: 2100000, guid: 2b341f94c02e0ab42aef51270f20f40b, type: 2}
    - target: {fileID: 13700002, guid: fd0c0c32f05f1c94db17f0dc2e06e9fe, type: 3}
      propertyPath: m_Materials.Array.data[0]
      value: 
      objectReference: {fileID: 2100000, guid: 2b341f94c02e0ab42aef51270f20f40b, type: 2}
    m_RemovedComponents: []
  m_SourcePrefab: {fileID: 100100000, guid: fd0c0c32f05f1c94db17f0dc2e06e9fe, type: 3}
--- !u!1 &2592465559486979191 stripped
GameObject:
  m_CorrespondingSourceObject: {fileID: 100062, guid: fd0c0c32f05f1c94db17f0dc2e06e9fe,
    type: 3}
  m_PrefabInstance: {fileID: 2592465559486880425}
  m_PrefabAsset: {fileID: 0}
